%YAML 1.1
%TAG !u! tag:unity3d.com,2011:
--- !u!74 &7400000
AnimationClip:
  m_ObjectHideFlags: 0
  m_CorrespondingSourceObject: {fileID: 0}
  m_PrefabInstance: {fileID: 0}
  m_PrefabAsset: {fileID: 0}
  m_Name: ScolarMoveRight
  serializedVersion: 6
  m_Legacy: 0
  m_Compressed: 0
  m_UseHighQualityCurve: 1
  m_RotationCurves: []
  m_CompressedRotationCurves: []
  m_EulerCurves: []
  m_PositionCurves: []
  m_ScaleCurves: []
  m_FloatCurves: []
  m_PPtrCurves:
  - curve:
    - time: 0
      value: {fileID: 21300000, guid: f639940cf7ccb304ba6b5f44877d49bb, type: 3}
    - time: 0.083333336
      value: {fileID: 21300000, guid: de66efaf19e1bb54a805e705175b493a, type: 3}
    - time: 0.16666667
      value: {fileID: 21300000, guid: e5780e1d2f437c94b846ccea85a5b5f6, type: 3}
    - time: 0.25
      value: {fileID: 21300000, guid: 25e9ee19d3592c94297070e6c24f3304, type: 3}
    - time: 0.33333334
      value: {fileID: 21300000, guid: 94e04bcf4c7b3ab49bf9ad4451d68bf3, type: 3}
    - time: 0.41666666
      value: {fileID: 21300000, guid: e7dd5306c62f1424b80f6d7fcd045794, type: 3}
    - time: 0.5
      value: {fileID: 21300000, guid: 3e830ef0c7300e54ca7838ac9f882a1d, type: 3}
    - time: 0.5833333
      value: {fileID: 21300000, guid: ef0ac4427b0981e4c97f7e319dd64a84, type: 3}
    - time: 0.6666667
      value: {fileID: 21300000, guid: 00eea2baa245b0b4b8e967ae9626f43c, type: 3}
    attribute: m_Sprite
    path: 
    classID: 212
    script: {fileID: 0}
  m_SampleRate: 12
  m_WrapMode: 0
  m_Bounds:
    m_Center: {x: 0, y: 0, z: 0}
    m_Extent: {x: 0, y: 0, z: 0}
  m_ClipBindingConstant:
    genericBindings:
    - serializedVersion: 2
      path: 0
      attribute: 0
      script: {fileID: 0}
      typeID: 212
      customType: 23
      isPPtrCurve: 1
    pptrCurveMapping:
    - {fileID: 21300000, guid: f639940cf7ccb304ba6b5f44877d49bb, type: 3}
    - {fileID: 21300000, guid: de66efaf19e1bb54a805e705175b493a, type: 3}
    - {fileID: 21300000, guid: e5780e1d2f437c94b846ccea85a5b5f6, type: 3}
    - {fileID: 21300000, guid: 25e9ee19d3592c94297070e6c24f3304, type: 3}
    - {fileID: 21300000, guid: 94e04bcf4c7b3ab49bf9ad4451d68bf3, type: 3}
    - {fileID: 21300000, guid: e7dd5306c62f1424b80f6d7fcd045794, type: 3}
    - {fileID: 21300000, guid: 3e830ef0c7300e54ca7838ac9f882a1d, type: 3}
    - {fileID: 21300000, guid: ef0ac4427b0981e4c97f7e319dd64a84, type: 3}
    - {fileID: 21300000, guid: 00eea2baa245b0b4b8e967ae9626f43c, type: 3}
  m_AnimationClipSettings:
    serializedVersion: 2
    m_AdditiveReferencePoseClip: {fileID: 0}
    m_AdditiveReferencePoseTime: 0
    m_StartTime: 0
    m_StopTime: 0.75
    m_OrientationOffsetY: 0
    m_Level: 0
    m_CycleOffset: 0
    m_HasAdditiveReferencePose: 0
    m_LoopTime: 1
    m_LoopBlend: 0
    m_LoopBlendOrientation: 0
    m_LoopBlendPositionY: 0
    m_LoopBlendPositionXZ: 0
    m_KeepOriginalOrientation: 0
    m_KeepOriginalPositionY: 1
    m_KeepOriginalPositionXZ: 0
    m_HeightFromFeet: 0
    m_Mirror: 0
  m_EditorCurves: []
  m_EulerEditorCurves: []
  m_HasGenericRootTransform: 0
  m_HasMotionFloatCurves: 0
  m_Events: []
